<?xml version="1.0" standalone="no"?>
<!DOCTYPE svg PUBLIC "-//W3C//DTD SVG 1.1//EN" "http://www.w3.org/Graphics/SVG/1.1/DTD/svg11.dtd" >
<svg xmlns="http://www.w3.org/2000/svg">
<metadata>Generated by IcoMoon</metadata>
<defs>
<font id="icomoon" horiz-adv-x="1024">
<font-face units-per-em="1024" ascent="960" descent="-64" />
<missing-glyph horiz-adv-x="1024" />
<glyph unicode="&#x20;" horiz-adv-x="512" d="" />
<glyph unicode="&#xe900;" horiz-adv-x="989" d="M985.408 97.785l-27.354 124.939c-15.626 68.345-57.7 124.799-114.625 159.115l-1.12 0.626-162.048 98.31c24.666 30.895 40.764 69.614 44.148 111.918l0.047 0.728 12.622 116.733c0.918 7.622 1.441 16.449 1.441 25.399 0 124.007-100.528 224.535-224.535 224.535-2.21 0-4.413-0.032-6.608-0.095l0.322 0.007h-25.245c-1.155 0.021-2.517 0.033-3.882 0.033-127.411 0-230.697-103.287-230.697-230.697 0-7.484 0.356-14.886 1.053-22.187l-0.072 0.931 12.622-116.733c5.299-42.735 21.078-81.003 44.667-113.189l-0.471 0.674-162.048-98.409c-56.608-35.085-97.724-90.585-113.292-155.989l-0.343-1.71-27.354-124.939c-1.568-7.75-2.465-16.659-2.465-25.777 0-75.118 60.895-136.013 136.013-136.013 0.403 0 0.806 0.002 1.208 0.005h713.32c1.089-0.032 2.37-0.050 3.655-0.050 73.989 0 133.969 59.98 133.969 133.969 0 9.869-1.067 19.49-3.093 28.751l0.163-0.886zM385.66 816.638c23.868 25.257 57.598 40.978 94.999 40.978 0.631 0 1.261-0.004 1.89-0.013l-0.095 0.001h25.245c0.534 0.008 1.164 0.012 1.795 0.012 37.401 0 71.131-15.721 94.941-40.915l0.058-0.062c20.14-21.082 32.536-49.713 32.536-81.238 0-5.298-0.35-10.515-1.029-15.628l0.065 0.6-12.622-116.733c-8.577-63.928-62.775-112.709-128.367-112.709s-119.789 48.781-128.293 112.044l-0.073 0.665-12.622 116.733c-0.613 4.513-0.963 9.73-0.963 15.028 0 31.526 12.396 60.156 32.579 81.283l-0.043-0.045zM875.958 50.69c-5.924-7.513-15.026-12.293-25.244-12.293 0 0 0 0-0.001 0h-713.382c-10.091 0.577-19 5.198-25.21 12.253l-0.035 0.040c-4.389 5.392-7.047 12.344-7.047 19.918 0 2.378 0.262 4.694 0.759 6.922l-0.039-0.211 27.354 124.939c9.249 39.503 33.689 72.094 66.676 91.914l0.655 0.365 191.512 116.733c29.609-14.086 64.322-22.379 100.956-22.542h0.057c0.276-0.001 0.602-0.002 0.928-0.002 36.387 0 70.844 8.266 101.595 23.023l-1.412-0.611 191.413-116.865c33.235-20.625 57.5-53.024 67.11-91.243l0.221-1.036 27.354-124.939c1.721-3.027 2.736-6.65 2.736-10.509 0-6.264-2.672-11.905-6.939-15.843l-0.015-0.013z" />
<glyph unicode="&#xe901;" horiz-adv-x="989" d="M694.993 120.327h-105.099c-0.393-0.011-0.855-0.017-1.319-0.017-28.331 0-51.309 22.915-51.412 51.222v0.010c0.121 28.302 23.093 51.199 51.412 51.199 0.464 0 0.926-0.006 1.387-0.018l-0.068 0.001h105.231c0.393 0.011 0.855 0.017 1.319 0.017 28.331 0 51.309-22.915 51.412-51.222v-0.010c-0.119-28.304-23.092-51.202-51.412-51.202-0.51 0-1.018 0.007-1.525 0.022l0.074-0.002z" />
<glyph unicode="&#xe902;" horiz-adv-x="1017" d="M886.348 775.683h-339.977c-0.019 0-0.040 0-0.062 0-28.563 0-51.717-23.155-51.717-51.717 0-2.705 0.208-5.361 0.608-7.954l-0.037 0.289c3.939-24.511 24.939-43.010 50.259-43.010 0.334 0 0.667 0.003 1 0.010l-0.050-0.001h338.010c0.109 0.001 0.237 0.002 0.366 0.002 8.842 0 16.766-3.93 22.12-10.138l0.032-0.038c4.275-4.829 6.885-11.217 6.885-18.215 0-2.261-0.272-4.458-0.786-6.56l0.039 0.189-77.898-372.805c-2.092-13.985-14.020-24.588-28.425-24.588-0.081 0-0.163 0-0.244 0.001h-329.723c-0.069-0.001-0.15-0.001-0.232-0.001-14.405 0-26.333 10.603-28.405 24.43l-0.019 0.158-112.659 653.298c-3.841 23.369-23.891 40.979-48.054 40.979-0.382 0-0.762-0.004-1.142-0.013l0.056 0.001h-235.525c-28.049-0.061-50.763-22.812-50.763-50.869 0-4.482 0.58-8.829 1.668-12.97l-0.079 0.354c5.463-22.513 25.445-38.969 49.27-38.969 0.682 0 1.36 0.013 2.035 0.040l-0.097-0.003h190.624l104.452-608.262c10.615-61.961 63.929-108.523 128.118-108.523 0.264 0 0.528 0.001 0.792 0.002h331.729c0.223-0.001 0.487-0.002 0.751-0.002 64.189 0 117.503 46.562 128.008 107.753l0.109 0.771 78 372.771c1.16 6.567 1.823 14.127 1.823 21.843 0 72.452-58.481 131.244-130.814 131.748h-0.048z" />
<glyph unicode="&#xe903;" horiz-adv-x="1017" d="M745.032 488.95c28.282 0 51.208 22.927 51.208 51.208s-22.927 51.208-51.208 51.208h-163.833c-28.282 0-51.208-22.927-51.208-51.208s22.927-51.208 51.208-51.208v0z" />
<glyph unicode="&#xe904;" horiz-adv-x="1017" d="M570.958 7.658c0-39.594-32.098-71.692-71.692-71.692s-71.692 32.098-71.692 71.692c0 39.594 32.098 71.692 71.692 71.692s71.692-32.098 71.692-71.692z" />
<glyph unicode="&#xe905;" horiz-adv-x="1017" d="M857.691 7.658c0-39.594-32.098-71.692-71.692-71.692s-71.692 32.098-71.692 71.692c0 39.594 32.098 71.692 71.692 71.692s71.692-32.098 71.692-71.692z" />
<glyph unicode="&#xe906;" horiz-adv-x="1017" d="M755.24 376.291c0.001 0.101 0.001 0.221 0.001 0.34 0 28.094-22.775 50.869-50.869 50.869-0.12 0-0.239 0-0.359-0.001h-102.365c-28.282 0-51.208-22.927-51.208-51.208s22.927-51.208 51.208-51.208h102.417c0.091-0.001 0.199-0.001 0.306-0.001 28.094 0 50.869 22.775 50.869 50.869 0 0.12 0 0.239-0.001 0.358v-0.018z" />
</font></defs></svg>